…
### What is mean total number of steps taken per day?
####1. Calculate the total number of steps per day using dplyr and group by date:

```r
steps <- data %>%
         filter(!is.na(steps)) %>%
         group_by(date) %>%
         summarize(steps = sum(steps)) %>%
         print
```

```
## # A tibble: 53 × 2
##          date steps
##        <date> <dbl>
## 1  2012-10-02   126
## 2  2012-10-03 11352
## 3  2012-10-04 12116
## 4  2012-10-05 13294
## 5  2012-10-06 15420
## 6  2012-10-07 11015
## 7  2012-10-09 12811
## 8  2012-10-10  9900
## 9  2012-10-11 10304
## 10 2012-10-12 17382
## # ... with 43 more rows
```
…
```
## [1] 0
```

```r
steps_full <- data_full %>%
              filter(!is.na(steps)) %>%
              group_by(date) %>%
              summarize(steps = sum(steps)) %>%
              print
```

```
## # A tibble: 61 × 2
##          date    steps
##        <date>    <dbl>
## 1  2012-10-01 10766.19
## 2  2012-10-02   126.00
## 3  2012-10-03 11352.00
## 4  2012-10-04 12116.00
## 5  2012-10-05 13294.00
## 6  2012-10-06 15420.00
## 7  2012-10-07 11015.00
## 8  2012-10-08 10766.19
## 9  2012-10-09 12811.00
## 10 2012-10-10  9900.00
## # ... with 51 more rows
```
…
####2. Make a panel plot containing a time series plot (i.e. type = "l") of the 5-minute interval (x-axis) and the average number of steps taken, averaged across all weekday days or weekend days (y-axis). See the README file in the GitHub repository to see an example of what this plot should look like using simulated data.

```r
interval_full <- data_full %>%
group_by(interval, weektype) %>%
summarise(steps = mean(steps))
interval_full
```

```
## Source: local data frame [576 x 3]
## Groups: interval [?]
## 
##    interval weektype       steps
##       <int>   <fctr>       <dbl>
## 1         0  weekday 1.943752225
## 2         0  weekend 0.214622642
## 3         5  weekday 0.384478462
## 4         5  weekend 0.042452830
## 5        10  weekday 0.149519402
## 6        10  weekend 0.016509434
## 7        15  weekday 0.170879316
## 8        15  weekend 0.018867925
## 9        20  weekday 0.085439658
## 10       20  weekend 0.009433962
## # ... with 566 more rows
```
…
